Alec Wahl’s Blog - Post #1 Sepsis Survival Analysis
…
    as.Date, as.Date.numeric

library(broom)
library(dplyr)

Sepsisdatakaggle <- read_csv("C:/Users/alecw/OneDrive/Desktop/Sepsisdatakaggle.csv", show_col_types = FALSE)

SepsisData <- Sepsisdatakaggle %>%
  rename(Sex = sex_0male_1female) %>%
  rename(hospitaloutcome=hospital_outcome_1alive_0dead)

SepsisData %>%
  mutate(Sex = ifelse(Sex > 0, 1, 0))

# A tibble: 110,204 × 4
   age_years   Sex episode_number hospitaloutcome
       <dbl> <dbl>          <dbl>           <dbl>
 1        21     1              1               1
 2        20     1              1               1
 3        21     1              1               1
 4        77     0              1               1
 5        72     0              1               1
 6        83     0              1               1
 7        74     0              1               1
 8        74     1              1               1
 9        69     0              1               1
10        53     1              1               1
# ℹ 110,194 more rows
…
